<svg width="24" height="25" viewBox="0 0 24 25" fill="none" xmlns="http://www.w3.org/2000/svg">
<rect y="0.142822" width="24" height="24" rx="8" fill="#2F2B32"/>
<path fill-rule="evenodd" clip-rule="evenodd" d="M8.89372 10.8662L12.0011 7.75881L15.1112 10.8689L16.9192 9.06088L12.0011 4.14282L7.08573 9.05822L8.89372 10.8662ZM4 12.1437L5.80752 10.3362L7.61504 12.1437L5.80752 13.9512L4 12.1437ZM12.0011 16.5298L8.89367 13.4224L7.08302 15.2278L7.08568 15.2304L12.0011 20.1458L16.9191 15.2278L15.1111 13.4198L12.0011 16.5298ZM16.3856 12.1449L18.1931 10.3374L20.0006 12.1449L18.1931 13.9525L16.3856 12.1449ZM12.0011 10.3097L13.8357 12.1443L12.0011 13.9816L10.1665 12.147V12.1417L10.4887 11.8195L10.6458 11.665L12.0011 10.3097Z" fill="#F3BA2F"/>
</svg>
