<svg width="100" height="28" viewBox="0 0 100 28" fill="none" xmlns="http://www.w3.org/2000/svg">
<rect width="28" height="28" rx="12" fill="#D9D9D9"/>
<rect x="36" width="28" height="28" rx="12" fill="#D9D9D9"/>
<rect x="72" width="28" height="28" rx="12" fill="#D9D9D9"/>
</svg>
