<svg width="24" height="25" viewBox="0 0 24 25" fill="none" xmlns="http://www.w3.org/2000/svg">
<rect y="0.857178" width="24" height="24" rx="8" fill="#EDEFF1"/>
<path d="M6.48438 13.689C8.51343 14.7665 10.6307 15.8944 12.266 16.7672L18.0003 13.689C15.924 16.7735 14.194 19.3414 12.266 22.1833C10.3345 19.3476 8.20153 16.2186 6.48438 13.689ZM6.70492 12.8381L12.2723 9.86736L17.7671 12.8164L12.2754 15.7905L6.70492 12.8381ZM12.266 8.91556L6.48438 11.9592L12.2408 3.53101L18.0003 11.9781L12.266 8.91556Z" fill="#3AB83A"/>
<path d="M12.2655 16.7672L17.9998 13.689C15.9235 16.7735 12.2655 22.1833 12.2655 22.1833V16.7672ZM12.2717 9.86736L17.7667 12.8164L12.2749 15.7905L12.2717 9.86736ZM12.2655 8.91579L12.2402 3.53101L17.9998 11.9781L12.2655 8.91579Z" fill="#0B8311"/>
<path d="M6.70508 12.8382L12.2727 13.2951L17.7676 12.8193L12.2755 15.7936L6.70508 12.8382Z" fill="#0B8311"/>
<path d="M12.2715 13.2951L17.7664 12.8193L12.2746 15.7936L12.2715 13.2951Z" fill="#146714"/>
</svg>
