<svg width="422" height="257" viewBox="0 0 422 257" fill="none" xmlns="http://www.w3.org/2000/svg">
<g filter="url(#filter0_d_91_64)">
<rect x="3" y="2" width="416" height="250" rx="5.44571" fill="#F6F7F8" shape-rendering="crispEdges"/>
<path d="M3 10C3 5.58172 6.58172 2 11 2H411C415.418 2 419 5.58172 419 10V46H3V10Z" fill="url(#paint0_linear_91_64)"/>
<mask id="mask0_91_64" style="mask-type:alpha" maskUnits="userSpaceOnUse" x="13" y="12" width="24" height="24">
<rect x="13" y="12" width="24" height="24" fill="#D9D9D9"/>
</mask>
<g mask="url(#mask0_91_64)">
<path d="M16 34V14L17.5 15.5L19 14L20.5 15.5L22 14L23.5 15.5L25 14L26.5 15.5L28 14L29.5 15.5L31 14L32.5 15.5L34 14V34L32.5 32.5L31 34L29.5 32.5L28 34L26.5 32.5L25 34L23.5 32.5L22 34L20.5 32.5L19 34L17.5 32.5L16 34ZM19 29H31V27H19V29ZM19 25H31V23H19V25ZM19 21H31V19H19V21Z" fill="white"/>
</g>
<path d="M45.5608 20.8321V22.9763H48.4403V24.3364H45.5608V26.6032H48.8079V28H43.8454V19.4353H48.8079V20.8321H45.5608ZM54.1161 28L52.7193 25.8925L51.4818 28H49.6438L51.8616 24.5937L49.6193 21.2119H51.5553L52.9398 23.3072L54.1896 21.2119H56.0276L53.7975 24.5937L56.0521 28H54.1161ZM58.6992 22.1921C58.9197 21.8817 59.222 21.6244 59.6059 21.4202C59.998 21.2078 60.4432 21.1016 60.9414 21.1016C61.5214 21.1016 62.0442 21.2446 62.5098 21.5305C62.9836 21.8164 63.3553 22.2248 63.6248 22.7558C63.9025 23.2786 64.0414 23.8871 64.0414 24.5815C64.0414 25.2758 63.9025 25.8925 63.6248 26.4316C63.3553 26.9626 62.9836 27.3751 62.5098 27.6692C62.0442 27.9632 61.5214 28.1103 60.9414 28.1103C60.4432 28.1103 60.0021 28.0082 59.6181 27.804C59.2424 27.5997 58.9361 27.3424 58.6992 27.032V31.2348H56.9838V21.2119H58.6992V22.1921ZM62.2893 24.5815C62.2893 24.173 62.2035 23.8218 62.0319 23.5277C61.8686 23.2255 61.648 22.9967 61.3703 22.8415C61.1007 22.6863 60.8067 22.6087 60.4881 22.6087C60.1777 22.6087 59.8836 22.6904 59.6059 22.8538C59.3363 23.009 59.1158 23.2377 58.9442 23.54C58.7809 23.8422 58.6992 24.1975 58.6992 24.606C58.6992 25.0144 58.7809 25.3697 58.9442 25.672C59.1158 25.9742 59.3363 26.207 59.6059 26.3704C59.8836 26.5256 60.1777 26.6032 60.4881 26.6032C60.8067 26.6032 61.1007 26.5215 61.3703 26.3581C61.648 26.1947 61.8686 25.9619 62.0319 25.6597C62.2035 25.3575 62.2893 24.998 62.2893 24.5815ZM71.5982 24.4589C71.5982 24.704 71.5818 24.9245 71.5492 25.1206H66.5867C66.6276 25.6107 66.7991 25.9946 67.1014 26.2723C67.4036 26.5501 67.7753 26.6889 68.2164 26.6889C68.8535 26.6889 69.3069 26.4153 69.5764 25.868H71.4266C71.2306 26.5215 70.8548 27.0606 70.2994 27.4854C69.7439 27.902 69.0618 28.1103 68.2531 28.1103C67.5997 28.1103 67.0115 27.9673 66.4887 27.6814C65.9741 27.3874 65.5698 26.9748 65.2757 26.4439C64.9898 25.9129 64.8468 25.3003 64.8468 24.606C64.8468 23.9035 64.9898 23.2867 65.2757 22.7558C65.5616 22.2248 65.9619 21.8164 66.4765 21.5305C66.9911 21.2446 67.5833 21.1016 68.2531 21.1016C68.8985 21.1016 69.4743 21.2405 69.9808 21.5182C70.4954 21.796 70.8916 22.1921 71.1693 22.7068C71.4552 23.2132 71.5982 23.7973 71.5982 24.4589ZM69.8215 23.9688C69.8133 23.5277 69.654 23.1765 69.3436 22.9151C69.0332 22.6455 68.6534 22.5107 68.2041 22.5107C67.7794 22.5107 67.4199 22.6414 67.1259 22.9028C66.84 23.156 66.6644 23.5114 66.599 23.9688H69.8215ZM76.6119 21.1139C77.4206 21.1139 78.0741 21.3712 78.5723 21.8858C79.0706 22.3923 79.3198 23.1029 79.3198 24.0178V28H77.6044V24.2506C77.6044 23.7115 77.4696 23.299 77.2 23.0131C76.9305 22.719 76.5629 22.572 76.0973 22.572C75.6235 22.572 75.2477 22.719 74.97 23.0131C74.7004 23.299 74.5657 23.7115 74.5657 24.2506V28H72.8503V21.2119H74.5657V22.0574C74.7944 21.7633 75.0844 21.5346 75.4356 21.3712C75.795 21.1997 76.1871 21.1139 76.6119 21.1139ZM83.5486 28.1103C82.9932 28.1103 82.4949 28.0123 82.0538 27.8162C81.6127 27.612 81.2614 27.3383 81 26.9953C80.7468 26.6522 80.6079 26.2723 80.5834 25.8557H82.3111C82.3438 26.1171 82.4704 26.3336 82.6909 26.5052C82.9196 26.6767 83.2015 26.7625 83.5364 26.7625C83.8631 26.7625 84.1163 26.6971 84.2961 26.5664C84.4839 26.4357 84.5779 26.2683 84.5779 26.064C84.5779 25.8435 84.4635 25.6801 84.2348 25.5739C84.0142 25.4596 83.6589 25.337 83.1688 25.2063C82.6623 25.0838 82.2457 24.9572 81.919 24.8265C81.6004 24.6958 81.3227 24.4957 81.0858 24.2261C80.8571 23.9566 80.7427 23.5931 80.7427 23.1356C80.7427 22.7599 80.8489 22.4168 81.0613 22.1064C81.2818 21.796 81.5923 21.5509 81.9925 21.3712C82.4009 21.1915 82.8788 21.1016 83.4261 21.1016C84.2348 21.1016 84.8801 21.3059 85.3621 21.7143C85.844 22.1145 86.1095 22.6578 86.1585 23.3439H84.5166C84.4921 23.0744 84.3777 22.862 84.1735 22.7068C83.9775 22.5434 83.712 22.4617 83.3771 22.4617C83.0667 22.4617 82.8257 22.5189 82.6542 22.6332C82.4908 22.7476 82.4091 22.9069 82.4091 23.1111C82.4091 23.3398 82.5235 23.5155 82.7522 23.638C82.9809 23.7523 83.3362 23.8708 83.8182 23.9933C84.3083 24.1158 84.7126 24.2425 85.0312 24.3732C85.3498 24.5039 85.6234 24.7081 85.8522 24.9858C86.0891 25.2554 86.2116 25.6148 86.2198 26.064C86.2198 26.4561 86.1095 26.8074 85.8889 27.1178C85.6765 27.4282 85.3661 27.6733 84.9577 27.853C84.5574 28.0245 84.0878 28.1103 83.5486 28.1103ZM93.9381 24.4589C93.9381 24.704 93.9218 24.9245 93.8891 25.1206H88.9267C88.9675 25.6107 89.1391 25.9946 89.4413 26.2723C89.7435 26.5501 90.1152 26.6889 90.5563 26.6889C91.1935 26.6889 91.6468 26.4153 91.9164 25.868H93.7666C93.5705 26.5215 93.1948 27.0606 92.6393 27.4854C92.0838 27.902 91.4018 28.1103 90.5931 28.1103C89.9396 28.1103 89.3514 27.9673 88.8287 27.6814C88.314 27.3874 87.9097 26.9748 87.6156 26.4439C87.3297 25.9129 87.1868 25.3003 87.1868 24.606C87.1868 23.9035 87.3297 23.2867 87.6156 22.7558C87.9015 22.2248 88.3018 21.8164 88.8164 21.5305C89.331 21.2446 89.9232 21.1016 90.5931 21.1016C91.2384 21.1016 91.8143 21.2405 92.3207 21.5182C92.8353 21.796 93.2315 22.1921 93.5092 22.7068C93.7951 23.2132 93.9381 23.7973 93.9381 24.4589ZM92.1614 23.9688C92.1533 23.5277 91.994 23.1765 91.6836 22.9151C91.3732 22.6455 90.9933 22.5107 90.5441 22.5107C90.1193 22.5107 89.7599 22.6414 89.4658 22.9028C89.1799 23.156 89.0043 23.5114 88.9389 23.9688H92.1614ZM99.8252 22.2657C100.046 21.9062 100.332 21.6244 100.683 21.4202C101.042 21.216 101.451 21.1139 101.908 21.1139V22.9151H101.455C100.916 22.9151 100.507 23.0417 100.23 23.2949C99.96 23.5481 99.8252 23.9892 99.8252 24.6182V28H98.1098V21.2119H99.8252V22.2657ZM109.374 24.4589C109.374 24.704 109.357 24.9245 109.325 25.1206H104.362C104.403 25.6107 104.575 25.9946 104.877 26.2723C105.179 26.5501 105.551 26.6889 105.992 26.6889C106.629 26.6889 107.083 26.4153 107.352 25.868H109.202C109.006 26.5215 108.63 27.0606 108.075 27.4854C107.52 27.902 106.837 28.1103 106.029 28.1103C105.375 28.1103 104.787 27.9673 104.264 27.6814C103.75 27.3874 103.345 26.9748 103.051 26.4439C102.765 25.9129 102.622 25.3003 102.622 24.606C102.622 23.9035 102.765 23.2867 103.051 22.7558C103.337 22.2248 103.738 21.8164 104.252 21.5305C104.767 21.2446 105.359 21.1016 106.029 21.1016C106.674 21.1016 107.25 21.2405 107.756 21.5182C108.271 21.796 108.667 22.1921 108.945 22.7068C109.231 23.2132 109.374 23.7973 109.374 24.4589ZM107.597 23.9688C107.589 23.5277 107.43 23.1765 107.119 22.9151C106.809 22.6455 106.429 22.5107 105.98 22.5107C105.555 22.5107 105.196 22.6414 104.902 22.9028C104.616 23.156 104.44 23.5114 104.375 23.9688H107.597ZM110.185 24.606C110.185 23.9035 110.328 23.2908 110.614 22.768C110.9 22.2371 111.296 21.8286 111.802 21.5427C112.309 21.2487 112.889 21.1016 113.542 21.1016C114.383 21.1016 115.078 21.314 115.625 21.7388C116.181 22.1554 116.552 22.7435 116.74 23.5032H114.89C114.792 23.2091 114.624 22.9804 114.388 22.817C114.159 22.6455 113.873 22.5597 113.53 22.5597C113.04 22.5597 112.652 22.7394 112.366 23.0989C112.08 23.4501 111.937 23.9525 111.937 24.606C111.937 25.2513 112.08 25.7536 112.366 26.1131C112.652 26.4643 113.04 26.6399 113.53 26.6399C114.224 26.6399 114.678 26.3295 114.89 25.7087H116.74C116.552 26.4439 116.181 27.0279 115.625 27.4609C115.07 27.8938 114.375 28.1103 113.542 28.1103C112.889 28.1103 112.309 27.9673 111.802 27.6814C111.296 27.3874 110.9 26.9789 110.614 26.4561C110.328 25.9252 110.185 25.3085 110.185 24.606ZM121.011 28.1103C120.357 28.1103 119.769 27.9673 119.247 27.6814C118.724 27.3874 118.311 26.9748 118.009 26.4439C117.715 25.9129 117.568 25.3003 117.568 24.606C117.568 23.9116 117.719 23.299 118.021 22.768C118.332 22.2371 118.752 21.8286 119.283 21.5427C119.814 21.2487 120.406 21.1016 121.06 21.1016C121.713 21.1016 122.306 21.2487 122.837 21.5427C123.368 21.8286 123.784 22.2371 124.086 22.768C124.397 23.299 124.552 23.9116 124.552 24.606C124.552 25.3003 124.393 25.9129 124.074 26.4439C123.764 26.9748 123.339 27.3874 122.8 27.6814C122.269 27.9673 121.673 28.1103 121.011 28.1103ZM121.011 26.6154C121.321 26.6154 121.611 26.5419 121.881 26.3949C122.159 26.2397 122.379 26.011 122.543 25.7087C122.706 25.4065 122.788 25.0389 122.788 24.606C122.788 23.9606 122.616 23.4664 122.273 23.1234C121.938 22.7721 121.526 22.5965 121.035 22.5965C120.545 22.5965 120.133 22.7721 119.798 23.1234C119.471 23.4664 119.308 23.9606 119.308 24.606C119.308 25.2513 119.467 25.7496 119.786 26.1008C120.112 26.4439 120.521 26.6154 121.011 26.6154ZM127.526 22.2657C127.746 21.9062 128.032 21.6244 128.383 21.4202C128.743 21.216 129.151 21.1139 129.609 21.1139V22.9151H129.155C128.616 22.9151 128.208 23.0417 127.93 23.2949C127.661 23.5481 127.526 23.9892 127.526 24.6182V28H125.81V21.2119H127.526V22.2657ZM130.323 24.5815C130.323 23.8953 130.458 23.2867 130.727 22.7558C131.005 22.2248 131.381 21.8164 131.855 21.5305C132.328 21.2446 132.855 21.1016 133.435 21.1016C133.876 21.1016 134.297 21.1997 134.697 21.3957C135.098 21.5836 135.416 21.8368 135.653 22.1554V18.9329H137.393V28H135.653V26.9953C135.441 27.3302 135.143 27.5997 134.759 27.804C134.375 28.0082 133.929 28.1103 133.423 28.1103C132.851 28.1103 132.328 27.9632 131.855 27.6692C131.381 27.3751 131.005 26.9626 130.727 26.4316C130.458 25.8925 130.323 25.2758 130.323 24.5815ZM135.665 24.606C135.665 24.1894 135.584 23.834 135.42 23.54C135.257 23.2377 135.036 23.009 134.759 22.8538C134.481 22.6904 134.183 22.6087 133.864 22.6087C133.546 22.6087 133.251 22.6863 132.982 22.8415C132.712 22.9967 132.492 23.2255 132.32 23.5277C132.157 23.8218 132.075 24.173 132.075 24.5815C132.075 24.9899 132.157 25.3493 132.32 25.6597C132.492 25.9619 132.712 26.1947 132.982 26.3581C133.26 26.5215 133.554 26.6032 133.864 26.6032C134.183 26.6032 134.481 26.5256 134.759 26.3704C135.036 26.207 135.257 25.9783 135.42 25.6842C135.584 25.382 135.665 25.0226 135.665 24.606ZM141.666 28.1103C141.11 28.1103 140.612 28.0123 140.171 27.8162C139.73 27.612 139.379 27.3383 139.117 26.9953C138.864 26.6522 138.725 26.2723 138.701 25.8557H140.428C140.461 26.1171 140.588 26.3336 140.808 26.5052C141.037 26.6767 141.319 26.7625 141.654 26.7625C141.98 26.7625 142.234 26.6971 142.413 26.5664C142.601 26.4357 142.695 26.2683 142.695 26.064C142.695 25.8435 142.581 25.6801 142.352 25.5739C142.132 25.4596 141.776 25.337 141.286 25.2063C140.78 25.0838 140.363 24.9572 140.036 24.8265C139.718 24.6958 139.44 24.4957 139.203 24.2261C138.974 23.9566 138.86 23.5931 138.86 23.1356C138.86 22.7599 138.966 22.4168 139.179 22.1064C139.399 21.796 139.71 21.5509 140.11 21.3712C140.518 21.1915 140.996 21.1016 141.543 21.1016C142.352 21.1016 142.997 21.3059 143.479 21.7143C143.961 22.1145 144.227 22.6578 144.276 23.3439H142.634C142.609 23.0744 142.495 22.862 142.291 22.7068C142.095 22.5434 141.829 22.4617 141.494 22.4617C141.184 22.4617 140.943 22.5189 140.771 22.6332C140.608 22.7476 140.526 22.9069 140.526 23.1111C140.526 23.3398 140.641 23.5155 140.87 23.638C141.098 23.7523 141.454 23.8708 141.936 23.9933C142.426 24.1158 142.83 24.2425 143.149 24.3732C143.467 24.5039 143.741 24.7081 143.969 24.9858C144.206 25.2554 144.329 25.6148 144.337 26.064C144.337 26.4561 144.227 26.8074 144.006 27.1178C143.794 27.4282 143.483 27.6733 143.075 27.853C142.675 28.0245 142.205 28.1103 141.666 28.1103Z" fill="white"/>
<path d="M30.904 94.728H26.248L25.448 97H23.544L27.528 85.864H29.64L33.624 97H31.704L30.904 94.728ZM30.392 93.24L28.584 88.072L26.76 93.24H30.392ZM39.8043 88.04C40.4976 88.04 41.1163 88.184 41.6603 88.472C42.2149 88.76 42.6469 89.1867 42.9563 89.752C43.2656 90.3173 43.4203 91 43.4203 91.8V97H41.6123V92.072C41.6123 91.2827 41.4149 90.68 41.0203 90.264C40.6256 89.8373 40.0869 89.624 39.4043 89.624C38.7216 89.624 38.1776 89.8373 37.7723 90.264C37.3776 90.68 37.1803 91.2827 37.1803 92.072V97H35.3563V88.184H37.1803V89.192C37.4789 88.8293 37.8576 88.5467 38.3163 88.344C38.7856 88.1413 39.2816 88.04 39.8043 88.04ZM45.1389 92.552C45.1389 91.6667 45.3202 90.8827 45.6829 90.2C46.0562 89.5173 46.5575 88.9893 47.1869 88.616C47.8269 88.232 48.5309 88.04 49.2989 88.04C49.9922 88.04 50.5949 88.1787 51.1069 88.456C51.6295 88.7227 52.0455 89.0587 52.3549 89.464V88.184H54.1949V97H52.3549V95.688C52.0455 96.104 51.6242 96.4507 51.0909 96.728C50.5575 97.0053 49.9495 97.144 49.2669 97.144C48.5095 97.144 47.8162 96.952 47.1869 96.568C46.5575 96.1733 46.0562 95.6293 45.6829 94.936C45.3202 94.232 45.1389 93.4373 45.1389 92.552ZM52.3549 92.584C52.3549 91.976 52.2269 91.448 51.9709 91C51.7255 90.552 51.4002 90.2107 50.9949 89.976C50.5895 89.7413 50.1522 89.624 49.6829 89.624C49.2135 89.624 48.7762 89.7413 48.3709 89.976C47.9655 90.2 47.6349 90.536 47.3789 90.984C47.1335 91.4213 47.0109 91.944 47.0109 92.552C47.0109 93.16 47.1335 93.6933 47.3789 94.152C47.6349 94.6107 47.9655 94.9627 48.3709 95.208C48.7869 95.4427 49.2242 95.56 49.6829 95.56C50.1522 95.56 50.5895 95.4427 50.9949 95.208C51.4002 94.9733 51.7255 94.632 51.9709 94.184C52.2269 93.7253 52.3549 93.192 52.3549 92.584ZM58.4146 85.16V97H56.5906V85.16H58.4146ZM68.7454 88.184L63.3374 101.144H61.4494L63.2414 96.856L59.7694 88.184H61.8014L64.2814 94.904L66.8574 88.184H68.7454ZM73.3219 97.144C72.6285 97.144 72.0045 97.0213 71.4499 96.776C70.9059 96.52 70.4739 96.1787 70.1539 95.752C69.8339 95.3147 69.6632 94.8293 69.6419 94.296H71.5299C71.5619 94.6693 71.7379 94.984 72.0579 95.24C72.3885 95.4853 72.7992 95.608 73.2899 95.608C73.8019 95.608 74.1965 95.512 74.4739 95.32C74.7619 95.1173 74.9059 94.8613 74.9059 94.552C74.9059 94.2213 74.7459 93.976 74.4259 93.816C74.1165 93.656 73.6205 93.48 72.9379 93.288C72.2765 93.1067 71.7379 92.9307 71.3219 92.76C70.9059 92.5893 70.5432 92.328 70.2339 91.976C69.9352 91.624 69.7859 91.16 69.7859 90.584C69.7859 90.1147 69.9245 89.688 70.2019 89.304C70.4792 88.9093 70.8739 88.6 71.3859 88.376C71.9085 88.152 72.5059 88.04 73.1779 88.04C74.1805 88.04 74.9859 88.296 75.5939 88.808C76.2125 89.3093 76.5432 89.9973 76.5859 90.872H74.7619C74.7299 90.4773 74.5699 90.1627 74.2819 89.928C73.9939 89.6933 73.6045 89.576 73.1139 89.576C72.6339 89.576 72.2659 89.6667 72.0099 89.848C71.7539 90.0293 71.6259 90.2693 71.6259 90.568C71.6259 90.8027 71.7112 91 71.8819 91.16C72.0525 91.32 72.2605 91.448 72.5059 91.544C72.7512 91.6293 73.1139 91.7413 73.5939 91.88C74.2339 92.0507 74.7565 92.2267 75.1619 92.408C75.5779 92.5787 75.9352 92.8347 76.2339 93.176C76.5325 93.5173 76.6872 93.9707 76.6979 94.536C76.6979 95.0373 76.5592 95.4853 76.2819 95.88C76.0045 96.2747 75.6099 96.584 75.0979 96.808C74.5965 97.032 74.0045 97.144 73.3219 97.144ZM79.5968 87.016C79.2661 87.016 78.9888 86.904 78.7648 86.68C78.5408 86.456 78.4288 86.1787 78.4288 85.848C78.4288 85.5173 78.5408 85.24 78.7648 85.016C78.9888 84.792 79.2661 84.68 79.5968 84.68C79.9168 84.68 80.1888 84.792 80.4128 85.016C80.6368 85.24 80.7488 85.5173 80.7488 85.848C80.7488 86.1787 80.6368 86.456 80.4128 86.68C80.1888 86.904 79.9168 87.016 79.5968 87.016ZM80.4928 88.184V97H78.6688V88.184H80.4928ZM86.0875 97.144C85.3942 97.144 84.7702 97.0213 84.2155 96.776C83.6715 96.52 83.2395 96.1787 82.9195 95.752C82.5995 95.3147 82.4288 94.8293 82.4075 94.296H84.2955C84.3275 94.6693 84.5035 94.984 84.8235 95.24C85.1542 95.4853 85.5648 95.608 86.0555 95.608C86.5675 95.608 86.9622 95.512 87.2395 95.32C87.5275 95.1173 87.6715 94.8613 87.6715 94.552C87.6715 94.2213 87.5115 93.976 87.1915 93.816C86.8822 93.656 86.3862 93.48 85.7035 93.288C85.0422 93.1067 84.5035 92.9307 84.0875 92.76C83.6715 92.5893 83.3088 92.328 82.9995 91.976C82.7008 91.624 82.5515 91.16 82.5515 90.584C82.5515 90.1147 82.6902 89.688 82.9675 89.304C83.2448 88.9093 83.6395 88.6 84.1515 88.376C84.6742 88.152 85.2715 88.04 85.9435 88.04C86.9462 88.04 87.7515 88.296 88.3595 88.808C88.9782 89.3093 89.3088 89.9973 89.3515 90.872H87.5275C87.4955 90.4773 87.3355 90.1627 87.0475 89.928C86.7595 89.6933 86.3702 89.576 85.8795 89.576C85.3995 89.576 85.0315 89.6667 84.7755 89.848C84.5195 90.0293 84.3915 90.2693 84.3915 90.568C84.3915 90.8027 84.4768 91 84.6475 91.16C84.8182 91.32 85.0262 91.448 85.2715 91.544C85.5168 91.6293 85.8795 91.7413 86.3595 91.88C86.9995 92.0507 87.5222 92.2267 87.9275 92.408C88.3435 92.5787 88.7008 92.8347 88.9995 93.176C89.2982 93.5173 89.4528 93.9707 89.4635 94.536C89.4635 95.0373 89.3248 95.4853 89.0475 95.88C88.7702 96.2747 88.3755 96.584 87.8635 96.808C87.3622 97.032 86.7702 97.144 86.0875 97.144Z" fill="#726666"/>
<path d="M308.34 93.98C308.34 94.6733 308.16 95.3267 307.8 95.94C307.453 96.54 306.933 97.04 306.24 97.44C305.56 97.8267 304.753 98.0533 303.82 98.12V99.74H302.54V98.1C301.207 97.98 300.133 97.58 299.32 96.9C298.507 96.2067 298.087 95.2733 298.06 94.1H301.06C301.14 95.06 301.633 95.64 302.54 95.84V92.02C301.58 91.78 300.807 91.54 300.22 91.3C299.633 91.06 299.127 90.6733 298.7 90.14C298.273 89.6067 298.06 88.88 298.06 87.96C298.06 86.8 298.473 85.8533 299.3 85.12C300.14 84.3867 301.22 83.9667 302.54 83.86V82.24H303.82V83.86C305.1 83.9667 306.12 84.3533 306.88 85.02C307.653 85.6867 308.087 86.6067 308.18 87.78H305.16C305.12 87.3933 304.98 87.06 304.74 86.78C304.513 86.4867 304.207 86.28 303.82 86.16V89.94C304.82 90.1933 305.607 90.44 306.18 90.68C306.767 90.9067 307.273 91.2867 307.7 91.82C308.127 92.34 308.34 93.06 308.34 93.98ZM300.98 87.82C300.98 88.26 301.113 88.62 301.38 88.9C301.647 89.1667 302.033 89.3867 302.54 89.56V86.1C302.06 86.1667 301.68 86.3467 301.4 86.64C301.12 86.9333 300.98 87.3267 300.98 87.82ZM303.82 95.88C304.327 95.7867 304.72 95.58 305 95.26C305.293 94.94 305.44 94.5533 305.44 94.1C305.44 93.66 305.3 93.3067 305.02 93.04C304.74 92.7733 304.34 92.5533 303.82 92.38V95.88ZM312.026 94.84C313.306 93.7733 314.326 92.8867 315.086 92.18C315.846 91.46 316.479 90.7133 316.986 89.94C317.493 89.1667 317.746 88.4067 317.746 87.66C317.746 86.98 317.586 86.4467 317.266 86.06C316.946 85.6733 316.453 85.48 315.786 85.48C315.119 85.48 314.606 85.7067 314.246 86.16C313.886 86.6 313.699 87.2067 313.686 87.98H310.966C311.019 86.38 311.493 85.1667 312.386 84.34C313.293 83.5133 314.439 83.1 315.826 83.1C317.346 83.1 318.513 83.5067 319.326 84.32C320.139 85.12 320.546 86.18 320.546 87.5C320.546 88.54 320.266 89.5333 319.706 90.48C319.146 91.4267 318.506 92.2533 317.786 92.96C317.066 93.6533 316.126 94.4933 314.966 95.48H320.866V97.8H310.986V95.72L312.026 94.84ZM331.91 85.54L326.59 98H323.75L329.11 85.86H322.27V83.46H331.91V85.54ZM336.027 90.28C334.694 89.5867 334.027 88.5133 334.027 87.06C334.027 86.34 334.207 85.6867 334.567 85.1C334.941 84.5 335.494 84.0267 336.227 83.68C336.974 83.32 337.881 83.14 338.947 83.14C340.014 83.14 340.914 83.32 341.647 83.68C342.394 84.0267 342.947 84.5 343.307 85.1C343.681 85.6867 343.867 86.34 343.867 87.06C343.867 87.7933 343.687 88.44 343.327 89C342.967 89.5467 342.487 89.9733 341.887 90.28C342.621 90.6 343.194 91.0667 343.607 91.68C344.021 92.2933 344.227 93.02 344.227 93.86C344.227 94.7667 343.994 95.56 343.527 96.24C343.074 96.9067 342.447 97.42 341.647 97.78C340.847 98.14 339.947 98.32 338.947 98.32C337.947 98.32 337.047 98.14 336.247 97.78C335.461 97.42 334.834 96.9067 334.367 96.24C333.914 95.56 333.687 94.7667 333.687 93.86C333.687 93.02 333.894 92.2933 334.307 91.68C334.721 91.0533 335.294 90.5867 336.027 90.28ZM341.147 87.46C341.147 86.8067 340.947 86.3 340.547 85.94C340.161 85.58 339.627 85.4 338.947 85.4C338.281 85.4 337.747 85.58 337.347 85.94C336.961 86.3 336.767 86.8133 336.767 87.48C336.767 88.08 336.967 88.56 337.367 88.92C337.781 89.28 338.307 89.46 338.947 89.46C339.587 89.46 340.114 89.28 340.527 88.92C340.941 88.5467 341.147 88.06 341.147 87.46ZM338.947 91.5C338.187 91.5 337.567 91.6933 337.087 92.08C336.621 92.4667 336.387 93.02 336.387 93.74C336.387 94.4067 336.614 94.9533 337.067 95.38C337.534 95.7933 338.161 96 338.947 96C339.734 96 340.354 95.7867 340.807 95.36C341.261 94.9333 341.487 94.3933 341.487 93.74C341.487 93.0333 341.254 92.4867 340.787 92.1C340.321 91.7 339.707 91.5 338.947 91.5ZM349.819 95.06L347.479 100.68H345.679L346.979 95.06H349.819ZM354.757 93.9C354.864 94.4867 355.104 94.94 355.477 95.26C355.864 95.5667 356.377 95.72 357.017 95.72C357.844 95.72 358.444 95.38 358.817 94.7C359.19 94.0067 359.377 92.8467 359.377 91.22C359.07 91.6467 358.637 91.98 358.077 92.22C357.53 92.46 356.937 92.58 356.297 92.58C355.444 92.58 354.67 92.4067 353.977 92.06C353.297 91.7 352.757 91.1733 352.357 90.48C351.957 89.7733 351.757 88.92 351.757 87.92C351.757 86.44 352.197 85.2667 353.077 84.4C353.957 83.52 355.157 83.08 356.677 83.08C358.57 83.08 359.904 83.6867 360.677 84.9C361.464 86.1133 361.857 87.94 361.857 90.38C361.857 92.1133 361.704 93.5333 361.397 94.64C361.104 95.7467 360.59 96.5867 359.857 97.16C359.137 97.7333 358.15 98.02 356.897 98.02C355.91 98.02 355.07 97.8333 354.377 97.46C353.684 97.0733 353.15 96.5733 352.777 95.96C352.417 95.3333 352.21 94.6467 352.157 93.9H354.757ZM356.877 90.3C357.57 90.3 358.117 90.0867 358.517 89.66C358.917 89.2333 359.117 88.66 359.117 87.94C359.117 87.1533 358.904 86.5467 358.477 86.12C358.064 85.68 357.497 85.46 356.777 85.46C356.057 85.46 355.484 85.6867 355.057 86.14C354.644 86.58 354.437 87.1667 354.437 87.9C354.437 88.6067 354.637 89.1867 355.037 89.64C355.45 90.08 356.064 90.3 356.877 90.3ZM367.277 93.9C367.383 94.4867 367.623 94.94 367.997 95.26C368.383 95.5667 368.897 95.72 369.537 95.72C370.363 95.72 370.963 95.38 371.337 94.7C371.71 94.0067 371.897 92.8467 371.897 91.22C371.59 91.6467 371.157 91.98 370.597 92.22C370.05 92.46 369.457 92.58 368.817 92.58C367.963 92.58 367.19 92.4067 366.497 92.06C365.817 91.7 365.277 91.1733 364.877 90.48C364.477 89.7733 364.277 88.92 364.277 87.92C364.277 86.44 364.717 85.2667 365.597 84.4C366.477 83.52 367.677 83.08 369.197 83.08C371.09 83.08 372.423 83.6867 373.197 84.9C373.983 86.1133 374.377 87.94 374.377 90.38C374.377 92.1133 374.223 93.5333 373.917 94.64C373.623 95.7467 373.11 96.5867 372.377 97.16C371.657 97.7333 370.67 98.02 369.417 98.02C368.43 98.02 367.59 97.8333 366.897 97.46C366.203 97.0733 365.67 96.5733 365.297 95.96C364.937 95.3333 364.73 94.6467 364.677 93.9H367.277ZM369.397 90.3C370.09 90.3 370.637 90.0867 371.037 89.66C371.437 89.2333 371.637 88.66 371.637 87.94C371.637 87.1533 371.423 86.5467 370.997 86.12C370.583 85.68 370.017 85.46 369.297 85.46C368.577 85.46 368.003 85.6867 367.577 86.14C367.163 86.58 366.957 87.1667 366.957 87.9C366.957 88.6067 367.157 89.1867 367.557 89.64C367.97 90.08 368.583 90.3 369.397 90.3ZM384.116 87.06C383.983 86.5 383.749 86.08 383.416 85.8C383.096 85.52 382.629 85.38 382.016 85.38C381.096 85.38 380.416 85.7533 379.976 86.5C379.549 87.2333 379.329 88.4333 379.316 90.1C379.636 89.5667 380.103 89.1533 380.716 88.86C381.329 88.5533 381.996 88.4 382.716 88.4C383.583 88.4 384.349 88.5867 385.016 88.96C385.683 89.3333 386.203 89.88 386.576 90.6C386.949 91.3067 387.136 92.16 387.136 93.16C387.136 94.1067 386.943 94.9533 386.556 95.7C386.183 96.4333 385.629 97.0067 384.896 97.42C384.163 97.8333 383.289 98.04 382.276 98.04C380.889 98.04 379.796 97.7333 378.996 97.12C378.209 96.5067 377.656 95.6533 377.336 94.56C377.029 93.4533 376.876 92.0933 376.876 90.48C376.876 88.04 377.296 86.2 378.136 84.96C378.976 83.7067 380.303 83.08 382.116 83.08C383.516 83.08 384.603 83.46 385.376 84.22C386.149 84.98 386.596 85.9267 386.716 87.06H384.116ZM382.076 90.7C381.369 90.7 380.776 90.9067 380.296 91.32C379.816 91.7333 379.576 92.3333 379.576 93.12C379.576 93.9067 379.796 94.5267 380.236 94.98C380.689 95.4333 381.323 95.66 382.136 95.66C382.856 95.66 383.423 95.44 383.836 95C384.263 94.56 384.476 93.9667 384.476 93.22C384.476 92.4467 384.269 91.8333 383.856 91.38C383.456 90.9267 382.863 90.7 382.076 90.7Z" fill="#4782F3"/>
<rect x="67" y="137" width="10" height="95" rx="2" fill="#FF6E40"/>
<rect x="81" y="187" width="10" height="45" rx="2" fill="#FFC5B3"/>
<rect x="111" y="148" width="10" height="84" rx="2" fill="#FF6E40"/>
<rect x="125" y="167" width="10" height="65" rx="2" fill="#FFC5B3"/>
<rect x="155" y="156" width="10" height="76" rx="2" fill="#FF6E40"/>
<rect x="169" y="172" width="10" height="60" rx="2" fill="#FFC5B3"/>
<rect x="199" y="156" width="10" height="76" rx="2" fill="#FF6E40"/>
<rect x="213" y="182" width="10" height="50" rx="2" fill="#FFC5B3"/>
<rect x="243" y="142" width="10" height="90" rx="2" fill="#FF6E40"/>
<rect x="257" y="169" width="10" height="63" rx="2" fill="#FFC5B3"/>
<rect x="287" y="167" width="10" height="65" rx="2" fill="#FF6E40"/>
<rect x="301" y="178" width="10" height="54" rx="2" fill="#FFC5B3"/>
<rect x="331" y="136" width="10" height="96" rx="2" fill="#FF6E40"/>
<rect x="345" y="187" width="10" height="45" rx="2" fill="#FFC5B3"/>
</g>
<defs>
<filter id="filter0_d_91_64" x="0.277143" y="0.638571" width="421.446" height="255.446" filterUnits="userSpaceOnUse" color-interpolation-filters="sRGB">
<feFlood flood-opacity="0" result="BackgroundImageFix"/>
<feColorMatrix in="SourceAlpha" type="matrix" values="0 0 0 0 0 0 0 0 0 0 0 0 0 0 0 0 0 0 127 0" result="hardAlpha"/>
<feOffset dy="1.36143"/>
<feGaussianBlur stdDeviation="1.36143"/>
<feComposite in2="hardAlpha" operator="out"/>
<feColorMatrix type="matrix" values="0 0 0 0 0 0 0 0 0 0 0 0 0 0 0 0 0 0 0.16 0"/>
<feBlend mode="normal" in2="BackgroundImageFix" result="effect1_dropShadow_91_64"/>
<feBlend mode="normal" in="SourceGraphic" in2="effect1_dropShadow_91_64" result="shape"/>
</filter>
<linearGradient id="paint0_linear_91_64" x1="28.3769" y1="2" x2="59.0159" y2="136.791" gradientUnits="userSpaceOnUse">
<stop stop-color="#FF6E40"/>
<stop offset="1" stop-color="#FF4062"/>
</linearGradient>
</defs>
</svg>
