<svg width="81" height="80" viewBox="0 0 81 80" fill="none" xmlns="http://www.w3.org/2000/svg">
<path fill-rule="evenodd" clip-rule="evenodd" d="M48.1216 9.1633C44.8698 2.50123 35.529 2.50123 32.2772 9.1633C31.5513 10.6505 30.0368 11.4848 28.4936 11.336L25.4388 11.0415C17.6475 10.2903 11.0327 16.5594 11.0327 24.4084V48.6339C11.0327 52.5771 12.7337 56.335 15.7061 58.8937L31.7061 72.6667C36.6111 76.889 43.7877 76.889 48.6927 72.6667L64.6927 58.8937C67.6651 56.335 69.3661 52.5771 69.3661 48.6339V24.4085C69.3661 16.5594 62.7513 10.2903 54.96 11.0415L51.9052 11.336C50.3619 11.4848 48.8475 10.6505 48.1216 9.1633ZM51.944 35.124C52.933 34.1604 52.9535 32.5777 51.99 31.5888C51.0264 30.5998 49.4436 30.5793 48.4547 31.5428L36.5864 43.1069L32.0143 38.2807C31.0647 37.2784 29.4824 37.2356 28.48 38.1852C27.4777 39.1348 27.4349 40.7171 28.3845 41.7194L34.7003 48.3861C35.1605 48.8719 35.7962 49.1529 36.4652 49.1662C37.1342 49.1796 37.7806 48.9243 38.2598 48.4573L51.944 35.124Z" fill="url(#paint0_linear_169_154)"/>
<defs>
<linearGradient id="paint0_linear_169_154" x1="69.3661" y1="64.6722" x2="5.68095" y2="44.9134" gradientUnits="userSpaceOnUse">
<stop stop-color="#FF6E40"/>
<stop offset="1" stop-color="#FFA88C"/>
</linearGradient>
</defs>
</svg>
