<svg width="81" height="80" viewBox="0 0 81 80" fill="none" xmlns="http://www.w3.org/2000/svg">
<path fill-rule="evenodd" clip-rule="evenodd" d="M24.7088 17.5001H23.7329C16.8294 17.5001 11.2329 23.0966 11.2329 30.0001V38.3335H11.2746C11.247 38.6631 11.2329 38.9967 11.2329 39.3335V40.8334H22.0662C26.2084 40.8334 29.5662 44.1913 29.5662 48.3334C29.5662 52.4756 26.2084 55.8334 22.0662 55.8334H11.2329V57.3335C11.2329 63.8688 16.5309 69.1668 23.0662 69.1668H47.8735C49.7289 69.1668 51.2329 67.6628 51.2329 65.8074V56.6668C51.2329 54.3656 53.0984 52.5001 55.3996 52.5001H63.7329C66.9546 52.5001 69.5662 49.8885 69.5662 46.6668V39.3335C69.5662 34.6466 66.8415 30.5962 62.8896 28.6798C62.6421 22.6523 57.8215 17.8045 51.8052 17.5139L52.1964 16.1447C52.9569 13.483 50.9583 10.8334 48.19 10.8334H29.9342C28.1407 10.8334 26.5485 11.981 25.9813 13.6824L24.7088 17.5001ZM28.3162 22.4891L30.5348 15.8334H47.0853L44.6774 24.261L43.5977 27.5001H26.6459L28.3126 22.5001H28.3162V22.4891ZM50.3805 22.5001L49.4551 25.7391L48.8681 27.5001H57.6896C56.9495 24.6247 54.3393 22.5001 51.2329 22.5001H50.3805ZM23.0313 22.5325C19.3274 22.8761 16.4047 25.9131 16.2402 29.6662C17.7228 28.6174 19.4573 27.9011 21.3351 27.6259C21.3433 27.5981 21.352 27.5704 21.3612 27.5428L23.0313 22.5325Z" fill="url(#paint0_linear_169_143)"/>
<path d="M22.0662 50.8334H16.2329V45.8334H22.0662C23.447 45.8334 24.5662 46.9527 24.5662 48.3334C24.5662 49.7141 23.447 50.8334 22.0662 50.8334Z" fill="url(#paint1_linear_169_143)"/>
<path d="M54.5663 61.0899C54.5739 59.7092 55.6993 58.5961 57.08 58.6037L59.0412 58.6145L59.052 56.6529C59.0596 55.2722 60.185 54.1591 61.5657 54.1667C62.9464 54.1743 64.0595 55.2998 64.0519 56.6805L64.0411 58.642L66.0028 58.6528C67.3835 58.6604 68.4966 59.7859 68.489 61.1665C68.4814 62.5472 67.3559 63.6603 65.9753 63.6527L64.0135 63.6419L64.0027 65.6033C63.9951 66.9839 62.8697 68.097 61.489 68.0894C60.1083 68.0818 58.9952 66.9564 59.0028 65.5757L59.0136 63.6144L57.0525 63.6036C55.6718 63.596 54.5587 62.4706 54.5663 61.0899Z" fill="url(#paint2_linear_169_143)"/>
<defs>
<linearGradient id="paint0_linear_169_143" x1="69.5662" y1="60.0821" x2="8.60769" y2="36.8463" gradientUnits="userSpaceOnUse">
<stop stop-color="#FF6E40"/>
<stop offset="1" stop-color="#FFA88C"/>
</linearGradient>
<linearGradient id="paint1_linear_169_143" x1="69.5662" y1="60.0821" x2="8.60769" y2="36.8463" gradientUnits="userSpaceOnUse">
<stop stop-color="#FF6E40"/>
<stop offset="1" stop-color="#FFA88C"/>
</linearGradient>
<linearGradient id="paint2_linear_169_143" x1="69.5662" y1="60.0821" x2="8.60769" y2="36.8463" gradientUnits="userSpaceOnUse">
<stop stop-color="#FF6E40"/>
<stop offset="1" stop-color="#FFA88C"/>
</linearGradient>
</defs>
</svg>
